[
  {
    "device":    "/dev/md126",
    "number":    102,
    "offset":    "272G",
    "size":      "16G",
    "name":      "Swap",
    "type":      "8200",
    "fs":        "swap",
    "dir":       "none",
    "dump":      0,
    "pass":      0
  },
  {
    "device":    "/dev/md126",
    "number":    103,
    "offset":    "304G",
    "size":      "16G",
    "name":      "Arch Linux",
    "type":      "8300",
    "fs":        "ext4",
    "dir":       "/",
    "options":   ["rw", "relatime", "data=ordered"],
    "dump":      0,
    "pass":      1
  },
  {
    "protected": true,
    "device":    "/dev/md126",
    "number":    1,
    "name":      "EFI",
    "type":      "EF00",
    "fs":        "fat32",
    "dir":       "/boot/efi",
    "dump":      0,
    "pass":      2
  },
  {
    "device":    "/dev/md126",
    "number":    105,
    "offset":    "368G",
    "size":      "256G",
    "name":      "Home",
    "type":      "8300",
    "fs":        "ext4",
    "dir":       "/home",
    "options":   ["rw", "relatime", "data=ordered"],
    "dump":      0,
    "pass":      2
  },
  {
    "device":    "/dev/md126",
    "number":    104,
    "offset":    "336G",
    "size":      "16G",
    "name":      "Variable",
    "type":      "8300",
    "fs":        "ext4",
    "dir":       "/var",
    "options":   ["rw", "relatime", "data=ordered"],
    "dump":      0,
    "pass":      2
  },
  {
    "fs":        "tmpfs",
    "dir":       "/tmp",
    "options":   ["nodev", "nosuid"],
    "dump":      0,
    "pass":      0
  }
]
