[
  {
    "device": "/dev/sdc",
    "number": 1,
    "offset": "0G",
    "size":   "8G",
    "name":   "Storage",
    "type":   "8300",
    "fs":     "ext4"
  },
  {
    "device": "/dev/sdc",
    "number": 2,
    "offset": "8G",
    "size":   "448G",
    "name":   "Storage PV",
    "type":   "8E00"
  }
]
