[
  "^.git/",
  "^boot/efi/",
  "^boot/grub/",
  "^dev/?*",
  "^etc/crypttab",
  "^etc/fstab",
  "^etc/cups/ppd/*.ppd",
  "^etc/lvm/archive/?*",
  "^etc/lvm/backup/?*",
  "^etc/lvm/cache/",
  "^etc/printcup",
  "^home/?*/.ICEauthority",
  "^home/?*/.Skype/",
  "^home/?*/.Xauthority",
  "^home/?*/.android/",
  "^home/?*/.cache/",
  "^home/?*/.cargo/",
  "^home/?*/.ccache/",
  "^home/?*/.clang-format",
  "^home/?*/.cmake/",
  "^home/?*/.config/Slack/Cache/",
  "^home/?*/.config/Slack/logs/",
  "^home/?*/.config/awesome/",
  "^home/?*/.config/brave-flags.conf",
  "^home/?*/.config/BraveSoftware/",
  "^home/?*/.config/bspwm/",
  "^home/?*/.config/chromium-flags.conf",
  "^home/?*/.config/chromium/",
  "^home/?*/.config/chromium-*/",
  "^home/?*/.config/conky/",
  "^home/?*/.config/psd/",
  "^home/?*/.config/sxhkd/",
  "^home/?*/.config/xfce4/",
  "^home/?*/.conkycolors/",
  "^home/?*/.custom.el",
  "^home/?*/.dbus/",
  "^home/?*/.dir-locals.el",
  "^home/?*/.dropbox/",
  "^home/?*/.dropbox-dist/",
  "^home/?*/.emacs.d/",
  "^home/?*/.esd_auth",
  "^home/?*/.fonts/",
  "^home/?*/.gimp-*/",
  "^home/?*/.gitconfig",
  "^home/?*/.gksu.lock",
  "^home/?*/.gnupg/",
  "^home/?*/.gstreamer-*/",
  "^home/?*/.gvfs/",
  "^home/?*/.hplip/",
  "^home/?*/.local/share/TelegramDesktop/tdata/",
  "^home/?*/.local/share/Trash/",
  "^home/?*/.local/share/fonts/",
  "^home/?*/.local/share/gvfs-metadata/*.log",
  "^home/?*/.local/share/keyrings/",
  "^home/?*/.local/share/recently-used.xbel*",
  "^home/?*/.luks/",
  "^home/?*/.mozilla/firefox/",
  "^home/?*/.npm/",
  "^home/?*/.nv/GLCache/",
  "^home/?*/.pgpass",
  "^home/?*/.pki/",
  "^home/?*/.sane/",
  "^home/?*/.smartgit/",
  "^home/?*/.ssh/",
  "^home/?*/.subversion/",
  "^home/?*/.thumbnails/",
  "^home/?*/.thunderbird/",
  "^home/?*/.tor-browser*/INSTALL/Browser/.cache/",
  "^home/?*/.tor-browser*/INSTALL/Browser/Downloads/.[^.]*",
  "^home/?*/.tor-browser*/INSTALL/Browser/Downloads/?*",
  "^home/?*/.tor-browser*/INSTALL/Browser/updated/",
  "^home/?*/.tor-browser*/app/Browser/.cache/",
  "^home/?*/.tor-browser*/app/Browser/Downloads/.[^.]*",
  "^home/?*/.tor-browser*/app/Browser/Downloads/?*",
  "^home/?*/.tor-browser*/app/Browser/updated/",
  "^home/?*/.viminfo",
  "^home/?*/.wireshark/",
  "^home/?*/.xfce4-session.verbose-log*",
  "^home/?*/.xsession-errors*",
  "^home/?*/.ycm_extra_conf.py*",
  "^home/?*/Desktop/.[^.]*",
  "^home/?*/Desktop/?*",
  "^home/?*/Documents/.[^.]*",
  "^home/?*/Documents/?*",
  "^home/?*/Downloads/.[^.]*",
  "^home/?*/Downloads/?*",
  "^home/?*/Dropbox/.[^.]*",
  "^home/?*/Dropbox/?*",
  "^home/?*/Music/.[^.]*",
  "^home/?*/Music/?*",
  "^home/?*/Pictures/.[^.]*",
  "^home/?*/Pictures/?*",
  "^home/?*/Projects/",
  "^home/?*/Public/.[^.]*",
  "^home/?*/Public/?*",
  "^home/?*/Templates/.[^.]*",
  "^home/?*/Templates/?*",
  "^home/?*/Videos/.[^.]*",
  "^home/?*/Videos/?*",
  "^home/srv/?*/?*",
  "^lost+found/",
  "^media/?*",
  "^mnt/?*",
  "^proc/?*",
  "^root/.ICEauthority",
  "^root/.Skype/",
  "^root/.Xauthority",
  "^root/.android/",
  "^root/.cache/",
  "^root/.cargo/",
  "^root/.ccache/",
  "^root/.clang-format",
  "^root/.cmake/",
  "^root/.config/Slack/Cache/",
  "^root/.config/Slack/logs/",
  "^root/.config/awesome/",
  "^root/.config/brave-flags.conf",
  "^root/.config/BraveSoftware/",
  "^root/.config/bspwm/",
  "^root/.config/chromium-flags.conf",
  "^root/.config/chromium/",
  "^root/.config/chromium-*/",
  "^root/.config/conky/",
  "^root/.config/psd/",
  "^root/.config/sxhkd/",
  "^root/.config/xfce4/",
  "^root/.conkycolors/",
  "^root/.custom.el",
  "^root/.dbus/",
  "^root/.dir-locals.el",
  "^root/.dropbox/",
  "^root/.dropbox-dist/",
  "^root/.emacs.d/",
  "^root/.esd_auth",
  "^root/.fonts/",
  "^root/.gimp-*/",
  "^root/.gitconfig",
  "^root/.gksu.lock",
  "^root/.gnupg/",
  "^root/.gstreamer-*/",
  "^root/.gvfs/",
  "^root/.hplip/",
  "^root/.local/share/TelegramDesktop/tdata/",
  "^root/.local/share/Trash/",
  "^root/.local/share/fonts/",
  "^root/.local/share/gvfs-metadata/*.log",
  "^root/.local/share/keyrings/",
  "^root/.local/share/recently-used.xbel*",
  "^root/.luks/",
  "^root/.mozilla/firefox/",
  "^root/.npm/",
  "^root/.nv/GLCache/",
  "^root/.pgpass",
  "^root/.pki/",
  "^root/.sane/",
  "^root/.smartgit/",
  "^root/.ssh/",
  "^root/.subversion/",
  "^root/.thumbnails/",
  "^root/.thunderbird/",
  "^root/.tor-browser*/INSTALL/Browser/.cache/",
  "^root/.tor-browser*/INSTALL/Browser/Downloads/.[^.]*",
  "^root/.tor-browser*/INSTALL/Browser/Downloads/?*",
  "^root/.tor-browser*/INSTALL/Browser/updated/",
  "^root/.tor-browser*/app/Browser/.cache/",
  "^root/.tor-browser*/app/Browser/Downloads/.[^.]*",
  "^root/.tor-browser*/app/Browser/Downloads/?*",
  "^root/.tor-browser*/app/Browser/updated/",
  "^root/.viminfo",
  "^root/.wireshark/",
  "^root/.xfce4-session.verbose-log*",
  "^root/.xsession-errors*",
  "^root/.ycm_extra_conf.py*",
  "^root/Desktop/.[^.]*",
  "^root/Desktop/?*",
  "^root/Documents/.[^.]*",
  "^root/Documents/?*",
  "^root/Downloads/.[^.]*",
  "^root/Downloads/?*",
  "^root/Dropbox/.[^.]*",
  "^root/Dropbox/?*",
  "^root/Music/.[^.]*",
  "^root/Music/?*",
  "^root/Pictures/.[^.]*",
  "^root/Pictures/?*",
  "^root/Projects/",
  "^root/Public/.[^.]*",
  "^root/Public/?*",
  "^root/Templates/.[^.]*",
  "^root/Templates/?*",
  "^root/Videos/.[^.]*",
  "^root/Videos/?*",
  "^run/?*",
  "^srv/?*/?*",
  "^sys/?*",
  "^tmp/?*",
  "^var/abs/?*/?*",
  "^var/cache/?*/?*",
  "^var/empty/?*",
  "^var/lib/NetworkManager/timestamps*",
  "^var/lib/blueman/?*",
  "^var/lib/bluetooth/?*",
  "^var/lib/ex/?*",
  "^var/lib/lvm/archive/?*",
  "^var/lib/lvm/backup/?*",
  "^var/lib/lvm/cache/",
  "^var/lib/pacman/sync/?*",
  "^var/lib/postgres/?*_cluster.sh",
  "^var/lib/systemd/coredump/?*",
  "^var/lib/systemd/rfkill/?*",
  "^var/lib/systemd/random-seed",
  "^var/lib/texmf/luatex-cache/?*",
  "^var/lib/tor/?*",
  "^var/lib/transmission/?*",
  "^var/lib/upower/?*",
  "^var/lock/?*",
  "^var/log/?*/?*",
  "^var/run/?*",
  "^var/tmp/?*",
  "^.gitignore",
  "^README",
  "*.git/*/objects/??/??????????????????????????????????????",
  "*.git/objects/??/??????????????????????????????????????",
  "*/.?*_history",
  "*/.deprecated/",
  "*/lost+found/"
]
